{
    "data":[
        {
            "id":"1",
            "name":"CANNED MILK",
            "price":"2.80",
            "img":[]
        },
        {
            "id":"2",
            "name":"KURMA MILK",
            "price":"4.00",
            "img":[]
        },
        {
            "id":"3",
            "name":"EVIAN 500ML",
            "price":"6.00",
            "img":[]
        },
        {
            "id":"4",
            "name":"MINERAL WATER 500ML",
            "price":"1.80",
            "img":[]
        },
        {
            "id":"5",
            "name":"MINERAL WATER 1.5L",
            "price":"3.30",
            "img":[]
        }
    ]
}