{
    "data":[
        {
            "id":"1",
            "category":"layer",
            "name":"3 LAYER TEA APONG",
            "price":"5.50",
            "img":[
                "Drink-3LayerBlackSugar.jpg"
            ]
        },
        {
            "id":"2",
            "category":"layer",
            "name":"3 LAYER TEA PANDAN",
            "price":"5.50",
            "img":[
                "Drink-3LayerPandan.jpg"
            ]
        },
        {
            "id":"3",
            "category":"layer",
            "name":"3 LAYER COFFEE APONG",
            "price":"5.50",
            "img":[]
        },
        {
            "id":"4",
            "category":"layer",
            "name":"3 LAYER COFFEE PANDAN",
            "price":"5.50",
            "img":[]
        },
        {
            "id":"5",
            "category":"layer",
            "name":"SIRAP BANDUNG",
            "price":"3.80",
            "img":[]
        },
        {
            "id":"6",
            "category":"layer",
            "name":"BANDUNG CINCAU",
            "price":"4.80",
            "img":[
                "Drink-ChinChawBantung.jpg"
            ]
        },
        {
            "id":"7",
            "category":"layer",
            "name":"BANDUNG LONGAN",
            "price":"4.80",
            "img":[]
        },
        {
            "id":"8",
            "category":"layer",
            "name":"LONGAN MILK",
            "price":"4.80",
            "img":[
                
            ]
        }
    ]
}